…
That’s looking a bit better. I notice that there seems to be a stray “UA” at the end of some LAAs. From the output of the summary() function above, I can also see that the 2015-2017 columns seem to have been parsed as a character, so there’s probably some non-numeric character in there. Let’s see how many places these issues affect:

data_trim %>% filter(str_detect(LAA, " UA")) %>% select(LAA)

## # A tibble: 56 x 1
##    LAA                            
##    <chr>                          
##  1 Bath and North East Somerset UA
##  2 Bedford UA                     
##  3 Blackburn with Darwen UA       
##  4 Blackpool UA                   
##  5 Bournemouth UA                 
##  6 Bracknell Forest UA            
##  7 Brighton and Hove UA           
##  8 Bristol City of UA             
##  9 Central Bedfordshire UA        
## 10 Cheshire East UA               
## # … with 46 more rows
…
