…
## # A tibble: 3 x 19
##       x1    x2     x3    x4    x5    x6    x7    x8    x9   x10   x11
##    <dbl> <dbl>  <dbl> <dbl> <dbl> <dbl> <dbl> <dbl> <dbl> <dbl> <dbl>
## 1 21026.  150. 34731. 8366. 3255.  730. 2653.  97.6  150.  40.9 0.423
## 2 21115.  159. 32174. 9041. 3321.  802. 2673. 121.   170.  54.3 0.432
## 3 21369.  142. 42205. 7060. 3201.  566. 2194   45.8  106.  11.3 0.410
## # … with 8 more variables: x12 <dbl>, x13 <dbl>, x14 <dbl>, x15 <dbl>,
## #   x16 <dbl>, size <int>, withinss <dbl>, cluster <fct>

The augment() function gives a row for each observation. You not only have to provide the model object, but also the original data (exactly as it was originally used) and it augments it with cluster attribution. This is where the main results lie.

augment(test_km, swgoh_stats[,-1])

## # A tibble: 176 x 17
##    Power Speed Health Max.Ability Physical.Dmg Physical.Crit Special.Dmg
##    <dbl> <dbl>  <dbl>       <dbl>        <dbl>         <dbl>       <dbl>
##  1 18972   145  32108       11375         3602          1022        2356
##  2 18972   139  35392        6020         3286           333        3718
##  3 21378   125  27138       11223         3657          1110        1469
##  4 21378   168  30636       10728         3617          1079        1770
##  5 21378   110  47459        4485         2056           470        3366
##  6 24358   124  35381        7633         2970           734        2772
##  7 25143   167  34870       11982         3804           869        1559
##  8 21378   165  20693        4205         4207           812        1363
##  9 21378   131  36543        4020         3126           575        2226
## 10 21378   136  37121        4215         3332           904        2487
## # … with 166 more rows, and 10 more variables: Special.Crit <dbl>,
## #   Armor.Pen <dbl>, Resistance.Pen <dbl>, Potency <dbl>,
## #   Protection <dbl>, Armor <dbl>, Resistance <dbl>, Tenacity <dbl>,
## #   Health.Steal <dbl>, .cluster <fct>
…
